{
    "description": "De referentieimplementatie van het zaakregistratiecomponent.",
    "organization_name": "VNG Realisatie",
    "service_name": "Zaakregistratiecomponent (ZRC)",
    "api_type": "REST/JSON",
    "api_authentication": "Onbekend",
    "tags": ["zgw", "ztc", "zaakgericht werken", "zaakregistratiecomponent"],
    "is_reference_implementation": true,
    "environments": [{
        "name": "Productie",
        "api_url": "https://ref.tst.vng.cloud/zrc/api/v1/",
        "specification_url": "https://ref.tst.vng.cloud/zrc/api/v1/schema/",
        "documentation_url": "https://ref.tst.vng.cloud/zrc/"
    }],
    "contact": {
        "email": "standaarden.ondersteuning@vng.nl"
    },
    "terms_of_use": {
        "government_only": false,
        "pay_per_use": false
    }
}
